<?xml version="1.0" encoding="utf-8"?>
<!-- Generator: Adobe Illustrator 15.0.0, SVG Export Plug-In . SVG Version: 6.00 Build 0)  -->
<!DOCTYPE svg PUBLIC "-//W3C//DTD SVG 1.0//EN" "http://www.w3.org/TR/2001/REC-SVG-20010904/DTD/svg10.dtd">
<svg version="1.0" id="Layer_1" xmlns="http://www.w3.org/2000/svg" xmlns:xlink="http://www.w3.org/1999/xlink" x="0px" y="0px"
	 width="37px" height="27px" viewBox="0 0 37 27" enable-background="new 0 0 37 27" xml:space="preserve">
<path fill="#B6C3D6" d="M28.508,27l-8.492-12.013H37L28.508,27z"/>
<path fill="#B6C3D6" d="M8.492,0l8.492,12.013L0,12.012L8.492,0z"/>
<path fill="#F58220" d="M8.492,14.986L16.984,27L0,26.998L8.492,14.986z"/>
<path fill="#F58220" d="M28.508,12.013L20.016,0H37L28.508,12.013z"/>
</svg>
