<?xml version="1.0" encoding="utf-8"?>
<!-- Generator: Adobe Illustrator 15.0.0, SVG Export Plug-In . SVG Version: 6.00 Build 0)  -->
<!DOCTYPE svg PUBLIC "-//W3C//DTD SVG 1.1//EN" "http://www.w3.org/Graphics/SVG/1.1/DTD/svg11.dtd">
<svg version="1.1" id="Layer_1" xmlns="http://www.w3.org/2000/svg" xmlns:xlink="http://www.w3.org/1999/xlink" x="0px" y="0px"
	 width="24px" height="14px" viewBox="0 0 24 14" enable-background="new 0 0 24 14" xml:space="preserve">
<polygon fill="#F58220" points="11.879,8.519 8.758,2.313 5.778,13.609 8.137,13.617 9.385,8.729 11.879,13.999 14.378,8.729 
	15.633,13.617 17.984,13.609 15.011,2.313 "/>
<g>
	<defs>
		<rect id="SVGID_1_" y="0" width="23.758" height="14"/>
	</defs>
	<clipPath id="SVGID_2_">
		<use xlink:href="#SVGID_1_"  overflow="visible"/>
	</clipPath>
	<path clip-path="url(#SVGID_2_)" fill="#00AEEF" d="M11.879,0.841c3.258,0,6.105,1.609,6.105,1.609
		c6.979,4.796,0.251,11.178,0.251,11.178s12.06-6.519,0.54-12.02c0,0-2.908-1.61-6.896-1.61c-3.99,0-6.898,1.61-6.898,1.61
		c-11.519,5.501,0.548,12.02,0.548,12.02s-6.73-6.382,0.249-11.178C5.777,2.451,8.627,0.841,11.879,0.841"/>
</g>
</svg>
