<?xml version="1.0" encoding="utf-8"?>
<!-- Generator: Adobe Illustrator 15.0.0, SVG Export Plug-In . SVG Version: 6.00 Build 0)  -->
<!DOCTYPE svg PUBLIC "-//W3C//DTD SVG 1.1//EN" "http://www.w3.org/Graphics/SVG/1.1/DTD/svg11.dtd">
<svg version="1.1" id="Layer_1" xmlns="http://www.w3.org/2000/svg" xmlns:xlink="http://www.w3.org/1999/xlink" x="0px" y="0px"
	 width="71.771px" height="35.499px" viewBox="0 0 71.771 35.499" enable-background="new 0 0 71.771 35.499" xml:space="preserve">
<g>
	<defs>
		<rect id="SVGID_1_" y="0" width="71.77" height="35.499"/>
	</defs>
	<clipPath id="SVGID_2_">
		<use xlink:href="#SVGID_1_"  overflow="visible"/>
	</clipPath>
	<path clip-path="url(#SVGID_2_)" fill="#F38B00" d="M27.425,24.732c-0.058-0.262-0.257-0.808-0.597-0.939
		c-0.334-0.124-0.365,0.271-0.28,0.527c0.187,0.602,0.44,1.063,0.623,1.155C27.35,25.582,27.559,25.334,27.425,24.732"/>
	<path clip-path="url(#SVGID_2_)" fill="#F38B00" d="M24.758,25.363c-0.15-0.223-0.353-0.377-0.572-0.455
		c-0.005-0.004-0.009-0.004-0.015-0.008c-0.011,0-0.018-0.004-0.024-0.007c-0.012-0.004-0.022-0.009-0.032-0.012
		c-0.007,0-0.015,0-0.018-0.003c-0.017-0.004-0.033-0.009-0.051-0.015c-0.212-0.038-0.421-0.006-0.597,0.106
		c-0.393,0.27-0.454,0.876-0.13,1.36c0.15,0.219,0.353,0.372,0.571,0.455c0.003,0,0.008,0,0.016,0.006
		c0.006,0.001,0.017,0.006,0.023,0.007c0.011,0.005,0.02,0.005,0.03,0.008c0.009,0,0.013,0.003,0.02,0.007
		c0.016,0.003,0.031,0.01,0.049,0.012c0.209,0.042,0.42,0.011,0.596-0.107C25.021,26.449,25.081,25.844,24.758,25.363"/>
	<path clip-path="url(#SVGID_2_)" fill="#F38B00" d="M27.037,29.069c0.633,0.208,1.357,0.479,2,0.861
		c1.854,1.104,3.564,2.545,4.528,4.506c0.432,0.869,0.306,1.016,0.261,1.039c-0.169,0.086-0.231-0.094-0.231-0.094
		c-0.214-0.514-0.608-0.964-0.608-0.964c-4.555-5.38-11.1-4.808-13.011-4.207c-5.055,1.601-13.874-0.171-17.633-5.977
		C-2.234,17.176,0.1,7.542,7.554,2.709c7.45-4.831,17.204-3.028,21.778,4.031c3.591,5.537,2.921,12.668-1.138,17.816
		c-0.142-0.82-0.476-1.628-1.012-2.355c-0.045-0.067-0.093-0.132-0.139-0.194c-0.208-0.26-0.436-0.493-0.673-0.704
		c0.098-0.251,0.189-0.504,0.267-0.767c1.033-3.388,0.416-7.554-1.994-11.135C20.805,3.695,13.635,1.465,8.932,4.626
		c-4.704,3.16-5.948,10.315-2.42,16.22c1.918,3.208,6.102,5.854,10.875,6.068c-0.519-1.473-0.257-2.522-0.257-2.522
		c-0.038,0.157,0.339,0.616,0.414,0.732c0.401,0.586,0.883,1.138,1.472,1.54c1.13,0.769,2.184,1.317,3.518,1.545
		C24.175,28.49,25.583,28.599,27.037,29.069"/>
	<path clip-path="url(#SVGID_2_)" fill="#F38B00" d="M26.37,21.302c0,0-1.616-1.627-3.66-1.417c0,0,1.883-0.766,3.935,0.75"/>
	<path clip-path="url(#SVGID_2_)" fill="#002F87" d="M47.167,27.108c0.377,0.088,0.604,0.15,0.604,0.481
		c0,0.166-0.104,0.438-0.527,0.438c-0.301,0-4.257-0.457-5.494-3.367c-2.987-0.482-4.121-3.002-4.121-5.451
		c0-3.741,2.202-5.646,4.829-5.646c2.853,0,4.786,2.27,4.786,5.529c0,1.795-0.649,4.406-3.349,5.418
		C44.393,26.214,46.264,26.864,47.167,27.108 M44.393,15.981c-0.68-1.057-1.605-1.146-1.948-1.146c-0.729,0-1.509,0.394-2.026,1.193
		c-0.526,0.848-0.664,2.053-0.664,3.064c0,0.934,0.123,2.188,0.664,3.109c0.758,1.254,1.814,1.254,2.011,1.254
		c0.737,0,1.556-0.396,2.098-1.346c0.512-0.922,0.604-2.191,0.589-3.078C45.115,18.307,45.025,16.963,44.393,15.981"/>
	<path clip-path="url(#SVGID_2_)" fill="#002F87" d="M52.072,24.129c0,0.291-0.134,0.332-0.33,0.332h-1.405
		c-0.21-0.014-0.329-0.055-0.329-0.332V14.125c0.014-0.211,0.041-0.316,0.313-0.316h1.436c0.228,0,0.316,0.047,0.316,0.316V24.129z"
		/>
	<path clip-path="url(#SVGID_2_)" fill="#002F87" d="M60.843,17.731l-2.022,6.434c-0.077,0.225-0.108,0.27-0.257,0.283
		c-0.044,0.013-0.452,0.013-0.676,0.013c-0.271,0-0.352-0.04-0.426-0.282l-2.823-9.902c-0.048-0.164-0.048-0.182-0.048-0.24
		c0-0.18,0.14-0.227,0.29-0.227h1.418c0.254,0,0.316,0.012,0.393,0.33l1.74,6.885l2.109-6.912c0.074-0.215,0.106-0.303,0.271-0.303
		h0.575c0.104,0.031,0.119,0.059,0.209,0.346l2.144,6.869l1.752-6.912c0.06-0.244,0.138-0.303,0.348-0.303h1.025
		c0.167,0,0.301,0,0.301,0.195c0,0.059-0.013,0.122-0.042,0.272l-2.779,9.889c-0.076,0.242-0.12,0.296-0.33,0.296h-0.744
		c-0.149-0.013-0.196-0.054-0.271-0.282L60.843,17.731z"/>
	<path clip-path="url(#SVGID_2_)" fill="#002F87" d="M71.771,24.129c0,0.291-0.136,0.332-0.33,0.332h-1.406
		c-0.209-0.014-0.329-0.055-0.329-0.332V14.125c0.011-0.211,0.043-0.316,0.315-0.316h1.435c0.222,0,0.315,0.047,0.315,0.316V24.129z
		"/>
	<path clip-path="url(#SVGID_2_)" fill="#002F87" d="M63.323,27.309c0.05-0.076,0.056-0.076,0.122-0.076h0.296
		c0.079,0,0.093,0.015,0.093,0.098v3.389c0,0.07-0.014,0.096-0.085,0.096c-0.088,0-0.253,0-0.265-0.004
		c-0.039-0.004-0.045-0.035-0.045-0.092v-2.785l-2.022,2.809c-0.05,0.055-0.065,0.068-0.115,0.072h-0.194
		c-0.064,0-0.085-0.004-0.085-0.092v-3.398c0-0.072,0.013-0.092,0.076-0.092h0.266c0.04,0.013,0.053,0.027,0.053,0.098v2.625
		L63.323,27.309z"/>
	<path clip-path="url(#SVGID_2_)" fill="#002F87" d="M63.445,27.208c-0.079,0-0.089,0.006-0.142,0.088c0,0-1.782,2.467-1.864,2.584
		v-2.549c0-0.07-0.014-0.109-0.07-0.123H61.1c-0.086,0-0.102,0.037-0.102,0.117v3.398c0,0.105,0.036,0.118,0.11,0.118h0.194
		c0.062-0.009,0.082-0.024,0.131-0.082c0,0,1.697-2.36,1.982-2.751v2.711c0,0.045,0,0.109,0.065,0.113
		c0.003,0.002,0.017,0.009,0.267,0.009c0.091,0,0.108-0.05,0.108-0.122v-3.389c0-0.094-0.026-0.123-0.116-0.123H63.445z
		 M63.342,27.321c0.046-0.062,0.046-0.062,0.104-0.062h0.295c0.064,0,0.07,0.001,0.07,0.071v3.389c0,0.063-0.01,0.072-0.063,0.072
		l-0.259-0.006c-0.017-0.002-0.027-0.002-0.027-0.066v-2.861l-2.069,2.873c-0.044,0.053-0.053,0.055-0.093,0.061h-0.191
		c-0.057,0-0.06,0-0.06-0.068v-3.398c0-0.065,0.003-0.065,0.051-0.065h0.264c0.016,0.001,0.028,0.001,0.028,0.071v2.697
		L63.342,27.321z"/>
	<path clip-path="url(#SVGID_2_)" fill="#002F87" d="M53.853,30.739c-0.052,0.076-0.057,0.076-0.123,0.076h-0.291
		c-0.084,0-0.099-0.018-0.099-0.097v-3.388c0-0.072,0.015-0.098,0.085-0.098c0.09,0,0.253,0,0.269,0.006
		c0.036,0.006,0.042,0.035,0.042,0.092v2.787l2.024-2.814c0.048-0.057,0.062-0.064,0.111-0.07h0.193
		c0.066,0,0.087,0.006,0.087,0.092v3.398c0,0.068-0.012,0.092-0.078,0.092h-0.263c-0.037-0.008-0.051-0.031-0.051-0.097v-2.622
		L53.853,30.739z"/>
	<path clip-path="url(#SVGID_2_)" fill="#002F87" d="M55.871,27.208c-0.062,0.01-0.081,0.023-0.128,0.078
		c-0.003,0.006-1.699,2.363-1.983,2.754v-2.709c0-0.045,0-0.109-0.063-0.116c-0.003-0.002-0.021-0.007-0.271-0.007
		c-0.094,0-0.107,0.046-0.107,0.123v3.389c0,0.096,0.024,0.121,0.119,0.121h0.291c0.078,0,0.09-0.006,0.144-0.087
		c0,0,1.784-2.466,1.866-2.582v2.548c0,0.066,0.01,0.109,0.068,0.118l0.267,0.003c0.091,0,0.104-0.039,0.104-0.117v-3.398
		c0-0.104-0.038-0.117-0.113-0.117H55.871z M55.782,27.317c0.039-0.051,0.051-0.057,0.092-0.059h0.189c0.06,0,0.065,0,0.065,0.066
		v3.398c0,0.066-0.006,0.068-0.056,0.068H55.81c-0.014-0.006-0.026-0.008-0.026-0.072v-2.697l-1.95,2.701
		c-0.043,0.068-0.043,0.068-0.104,0.068h-0.291c-0.066,0-0.074-0.006-0.074-0.072v-3.389c0-0.064,0.011-0.072,0.063-0.072
		l0.255,0.002c0.023,0,0.029,0.006,0.029,0.07v2.859L55.782,27.317z"/>
	<path clip-path="url(#SVGID_2_)" fill="#002F87" d="M57.496,27.409c0-0.092,0.014-0.123,0.08-0.143
		c0.119-0.039,0.541-0.064,0.771-0.064c0.291,0,0.676,0.031,0.95,0.197c0.256,0.164,0.365,0.406,0.365,0.662
		c0,0.42-0.311,0.666-0.552,0.785c-0.037,0.02-0.076,0.037-0.118,0.051c0.042,0.01,0.075,0.016,0.118,0.025
		c0.521,0.127,0.784,0.492,0.784,0.945c0,0.979-1.189,0.979-1.569,0.979c-0.347,0-0.664-0.035-0.75-0.068
		c-0.069-0.02-0.08-0.045-0.08-0.164V27.409z M57.992,28.805c0.152,0.004,0.275,0.004,0.423-0.006
		c0.653-0.051,0.734-0.471,0.734-0.648c0-0.652-0.639-0.652-0.802-0.652c-0.135,0-0.253,0.008-0.355,0.021V28.805z M57.992,30.522
		c0.094,0.008,0.235,0.023,0.418,0.023c0.542,0,0.96-0.193,0.96-0.697c0-0.259-0.109-0.424-0.186-0.504
		c-0.232-0.264-0.585-0.281-0.866-0.281c-0.138,0-0.207,0.006-0.326,0.014V30.522z"/>
	<path clip-path="url(#SVGID_2_)" fill="#002F87" d="M57.567,27.245c-0.083,0.025-0.094,0.072-0.094,0.164v3.205
		c0,0.119,0.007,0.162,0.096,0.188c0.092,0.033,0.416,0.07,0.756,0.07c0.399,0,1.594,0,1.594-1.004c0-0.492-0.293-0.844-0.805-0.971
		c0,0-0.025-0.004-0.046-0.008c0.025-0.012,0.052-0.021,0.052-0.021c0.17-0.084,0.57-0.322,0.57-0.807
		c0-0.287-0.137-0.523-0.379-0.68c-0.22-0.137-0.544-0.203-0.963-0.203C58.11,27.178,57.688,27.206,57.567,27.245 M57.587,30.758
		c-0.054-0.016-0.067-0.025-0.067-0.145v-3.205c0-0.084,0.014-0.104,0.067-0.117c0.108-0.039,0.532-0.064,0.762-0.064
		c0.41,0,0.725,0.064,0.937,0.195c0.228,0.146,0.355,0.369,0.355,0.639c0,0.455-0.38,0.688-0.541,0.764
		c-0.003,0-0.182,0.079-0.182,0.079l0.069,0.017l0.118,0.026c0.487,0.116,0.766,0.454,0.766,0.921c0,0.953-1.16,0.953-1.546,0.953
		C57.999,30.821,57.673,30.79,57.587,30.758"/>
	<path clip-path="url(#SVGID_2_)" fill="#002F87" d="M57.963,27.5l0.003,0.021v1.311l0.449-0.006
		c0.704-0.055,0.759-0.529,0.759-0.674c0-0.309-0.142-0.678-0.825-0.678L57.963,27.5z M58.349,27.52
		c0.514,0,0.775,0.215,0.775,0.631c0,0.137-0.047,0.574-0.712,0.625c0,0-0.337,0.006-0.397,0.006v-1.238
		C58.049,27.54,58.349,27.52,58.349,27.52"/>
	<path clip-path="url(#SVGID_2_)" fill="#002F87" d="M58.063,29.047l-0.098,0.006v1.488l0.444,0.029
		c0.636,0,0.982-0.254,0.982-0.723c0-0.277-0.12-0.447-0.188-0.52c-0.234-0.266-0.582-0.287-0.887-0.287L58.063,29.047z
		 M58.066,29.096l0.252-0.008c0.295,0,0.628,0.02,0.852,0.27c0.063,0.072,0.174,0.23,0.174,0.49c0,0.588-0.586,0.674-0.934,0.674
		c0,0-0.373-0.021-0.396-0.021v-1.402C58.036,29.098,58.066,29.096,58.066,29.096"/>
	<path clip-path="url(#SVGID_2_)" fill="#002F87" d="M51.017,28.815l1.374,1.875c0.016,0.02,0.028,0.037,0.028,0.068
		c0,0.049-0.028,0.057-0.062,0.057h-0.404c-0.088,0-0.1,0-0.156-0.072l-1.287-1.811v1.807c0,0.072-0.036,0.076-0.098,0.076h-0.289
		c-0.077,0-0.102-0.008-0.102-0.1v-3.381c0-0.088,0.019-0.102,0.098-0.102h0.293c0.085-0.006,0.098,0.014,0.098,0.098v1.509
		l1.202-1.505c0.059-0.076,0.075-0.09,0.124-0.102h0.281c0.041,0,0.075,0.014,0.075,0.053c0,0.031-0.014,0.049-0.05,0.1
		L51.017,28.815z"/>
	<path clip-path="url(#SVGID_2_)" fill="#002F87" d="M51.837,27.208c-0.062,0.014-0.089,0.035-0.145,0.113
		c0,0-0.957,1.195-1.158,1.449v-1.439l-0.027-0.104l-0.095-0.02h-0.293c-0.095,0-0.123,0.031-0.123,0.127v3.381
		c0,0.105,0.04,0.125,0.128,0.125h0.288c0.051,0,0.122,0,0.122-0.102v-1.732c0.079,0.117,1.244,1.752,1.244,1.752
		c0.061,0.078,0.079,0.082,0.176,0.082h0.403c0.076,0,0.089-0.051,0.089-0.082l-0.034-0.086c0,0-1.256-1.707-1.365-1.857
		c0.021-0.027,1.114-1.416,1.114-1.416l0.014-0.021l0.042-0.091c0-0.048-0.039-0.079-0.1-0.079H51.837z M50.047,30.715v-3.381
		c0-0.074,0.008-0.076,0.072-0.076h0.293l0.063,0.002l0.008,0.07v3.408c0,0.048-0.01,0.053-0.07,0.053h-0.288
		C50.058,30.792,50.047,30.79,50.047,30.715 M51.731,27.35c0.051-0.076,0.068-0.084,0.11-0.096l0.275,0.004
		c0.024,0,0.053,0.002,0.053,0.028l-0.032,0.063l-0.015,0.018l-1.139,1.447l1.387,1.89l0.025,0.054c0,0.018-0.004,0.033-0.039,0.033
		h-0.403c-0.089,0-0.089,0-0.136-0.061c0,0-1.305-1.83-1.316-1.848C50.514,28.868,51.731,27.35,51.731,27.35"/>
</g>
</svg>
